…
This is a basic example which shows you how to solve a common problem:

``` r
library(biomer)
biomes <- biomer(
  pollen_percent = pollen_percent,
  meta_cols = c("Site", "Long", "Lat", "Elev"),
  pollen_weights_threshold = pollen_weights_threshold,
  pollen_pft = pollen_pft,
  pft_biome = pft_biome
)
#> Warning in check_pft(pollen_pft, pft_biome): Taxa not assigned to any pft:
#> Humulus, Plantaginaceae, Polygala, Sanguisorba, Urtica, Valerianaceae
biomes
#> # A tibble: 360 × 6
#> # Groups:   Site, Long, Lat, Elev [19]
#>    Site     Long   Lat  Elev biome  biome_score
#>    <chr>   <dbl> <dbl> <int> <chr>        <dbl>
#>  1 GHB-1+2  112.  38.9  1860 A_CLDE        2.07
#>  2 GHB-1+2  112.  38.9  1860 B_CLEG        2.07
#>  3 GHB-1+2  112.  38.9  1860 C_CLMX        2.07
#>  4 GHB-1+2  112.  38.9  1860 D_COEG        5.09
#>  5 GHB-1+2  112.  38.9  1860 E_COMX        9.42
#>  6 GHB-1+2  112.  38.9  1860 F_TEDE       10.3 
#>  7 GHB-1+2  112.  38.9  1860 G_WTEM        2.88
#>  8 GHB-1+2  112.  38.9  1860 H_WTEG        2.04
#>  9 GHB-1+2  112.  38.9  1860 I_TRSE        3.01
#> 10 GHB-1+2  112.  38.9  1860 J_TREG        3.01
#> # ℹ 350 more rows
…
